<svg width="370" height="24" viewBox="0 0 370 24" fill="none" xmlns="http://www.w3.org/2000/svg">
<path d="M369.061 13.0606C369.646 12.4748 369.646 11.5251 369.061 10.9393L359.515 1.39337C358.929 0.80758 357.979 0.807581 357.393 1.39337C356.808 1.97915 356.808 2.9289 357.393 3.51469L365.879 12L357.393 20.4853C356.808 21.071 356.808 22.0208 357.393 22.6066C357.979 23.1924 358.929 23.1924 359.515 22.6066L369.061 13.0606ZM1.31134e-07 13.5L368 13.5L368 10.5L-1.31134e-07 10.5L1.31134e-07 13.5Z" fill="white"/>
</svg>
