<svg width="618" height="324" viewBox="0 0 618 324" fill="none" xmlns="http://www.w3.org/2000/svg">
<path d="M343.39 162.34L309.05 142.32L274.7 122.29L274.7 162.34L274.7 202.4L309.05 182.37L343.39 162.34Z" stroke="url(#paint0_linear_79_4404)" stroke-width="1.5" stroke-miterlimit="10"/>
<path d="M549.47 122.291L515.13 102.261L480.78 82.2308L480.78 122.291L480.78 162.341L515.13 142.321L549.47 122.291Z" stroke="url(#paint1_linear_79_4404)" stroke-width="1.5" stroke-miterlimit="10"/>
<path d="M412.09 202.4L377.74 182.37L343.39 162.34L343.39 202.4L343.39 242.46L377.74 222.43L412.09 202.4Z" stroke="url(#paint2_linear_79_4404)" stroke-width="1.5" stroke-miterlimit="10"/>
<path d="M137 42.0603L171.35 62.0904L205.7 82.1104L205.7 42.0604L205.7 2.00036L171.35 22.0304L137 42.0603Z" stroke="url(#paint3_linear_79_4404)" stroke-width="1.5" stroke-miterlimit="10"/>
<path d="M274.7 122.29L240.35 142.32L206 162.34L240.35 182.37L274.7 202.4L274.7 162.34L274.7 122.29Z" stroke="url(#paint4_linear_79_4404)" stroke-width="1.5" stroke-miterlimit="10"/>
<path d="M412.09 202.4L412.09 162.34L412.09 122.29L377.74 142.32L343.39 162.34L377.74 182.37L412.09 202.4Z" stroke="url(#paint5_linear_79_4404)" stroke-width="1.5" stroke-miterlimit="10"/>
<path d="M412.09 202.401L377.74 222.431L343.39 242.461L377.74 262.491L412.09 282.511L412.09 242.461L412.09 202.401Z" stroke="url(#paint6_linear_79_4404)" stroke-width="1.5" stroke-miterlimit="10"/>
<path d="M480.78 322.57L515.13 302.54L549.47 282.51L515.13 262.49L480.78 242.46L480.78 282.51L480.78 322.57Z" stroke="url(#paint7_linear_79_4404)" stroke-width="1.5" stroke-miterlimit="10"/>
<path d="M1.00001 82.0504L1 120.78L1 122.11L35.35 102.08L69.7 82.0504L35.35 62.0304L1.00001 42.0004L1.00001 80.7204L1.00001 82.0504Z" stroke="url(#paint8_linear_79_4404)" stroke-width="1.5" stroke-miterlimit="10"/>
<path d="M68 42.0504L68 80.7804L68 82.1104L102.35 62.0804L136.7 42.0504L102.35 22.0304L68 2.00036L68 40.7204L68 42.0504Z" stroke="url(#paint9_linear_79_4404)" stroke-width="1.5" stroke-miterlimit="10"/>
<path d="M549.47 122.29L515.13 142.32L480.78 162.34L515.13 182.37L549.47 202.4L549.47 162.34L549.47 122.29Z" stroke="url(#paint10_linear_79_4404)" stroke-width="1.5" stroke-miterlimit="10"/>
<path d="M412.09 122.29L412.09 82.2301L412.09 42.1701L377.74 62.2L343.39 82.23L377.74 102.26L412.09 122.29Z" stroke="url(#paint11_linear_79_4404)" stroke-width="1.5" stroke-miterlimit="10"/>
<path d="M412.09 122.291L446.43 142.321L480.78 162.341L480.78 122.291L480.78 82.2308L446.43 102.261L412.09 122.291Z" stroke="url(#paint12_linear_79_4404)" stroke-width="1.5" stroke-miterlimit="10"/>
<path d="M480.78 82.23L515.13 102.26L549.47 122.29L549.47 82.2301L549.47 42.1701L515.13 62.2L480.78 82.23Z" stroke="url(#paint13_linear_79_4404)" stroke-width="1.5" stroke-miterlimit="10"/>
<path d="M412 42.0604L446.35 62.0904L480.69 82.1104L480.69 42.0604L480.69 2.00038L446.35 22.0304L412 42.0604Z" stroke="url(#paint14_linear_79_4404)" stroke-width="1.5" stroke-miterlimit="10"/>
<path d="M412.09 282.511L446.43 262.491L480.78 242.461L446.43 222.431L412.09 202.401L412.09 242.461L412.09 282.511Z" stroke="url(#paint15_linear_79_4404)" stroke-width="1.5" stroke-miterlimit="10"/>
<path d="M480.78 242.461L515.13 222.431L549.47 202.401L515.13 182.371L480.78 162.341L480.78 202.401L480.78 242.461Z" stroke="url(#paint16_linear_79_4404)" stroke-width="1.5" stroke-miterlimit="10"/>
<path d="M480.78 242.461L480.78 202.401L480.78 162.341L446.43 182.371L412.09 202.401L446.43 222.431L480.78 242.461Z" stroke="url(#paint17_linear_79_4404)" stroke-width="1.5" stroke-miterlimit="10"/>
<path d="M480.78 242.461L515.13 262.491L549.47 282.511L549.47 242.461L549.47 202.401L515.13 222.431L480.78 242.461Z" stroke="url(#paint18_linear_79_4404)" stroke-width="1.5" stroke-miterlimit="10"/>
<path d="M137 122L137 162.06L137 202.12L171.35 182.09L205.7 162.06L171.35 142.03L137 122Z" stroke="url(#paint19_linear_79_4404)" stroke-width="1.5" stroke-miterlimit="10"/>
<path d="M137 122.06L171.35 142.08L205.7 162.11L205.7 122.06L205.7 82.0004L171.35 102.03L137 122.06Z" stroke="url(#paint20_linear_79_4404)" stroke-width="1.5" stroke-miterlimit="10"/>
<path d="M342.7 82.1201L342.7 42.0601L342.7 2.00013L308.35 22.0301L274 42.0601L308.35 62.0901L342.7 82.1201Z" stroke="url(#paint21_linear_79_4404)" stroke-width="1.5" stroke-miterlimit="10"/>
<path d="M549.47 202.401L549.47 242.461L549.47 282.511L583.82 262.491L618.17 242.461L583.82 222.431L549.47 202.401Z" stroke="url(#paint22_linear_79_4404)" stroke-width="1.5" stroke-miterlimit="10"/>
<path d="M549.47 202.401L583.82 222.431L618.17 242.461L618.17 202.401L618.17 162.341L583.82 182.371L549.47 202.401Z" stroke="url(#paint23_linear_79_4404)" stroke-width="1.5" stroke-miterlimit="10"/>
<path d="M618.17 162.341L618.17 122.291L618.17 82.2308L583.82 102.261L549.47 122.291L583.82 142.321L618.17 162.341Z" stroke="url(#paint24_linear_79_4404)" stroke-width="1.5" stroke-miterlimit="10"/>
<path d="M549.47 42.1705L583.82 62.2005L618.17 82.2305L618.17 42.1705L618.17 2.12049L583.82 22.1505L549.47 42.1705Z" stroke="url(#paint25_linear_79_4404)" stroke-width="1.5" stroke-miterlimit="10"/>
<defs>
<linearGradient id="paint0_linear_79_4404" x1="274.7" y1="122.29" x2="279.06" y2="205.761" gradientUnits="userSpaceOnUse">
<stop stop-color="#F6E059"/>
<stop offset="1" stop-color="#AEF562"/>
</linearGradient>
<linearGradient id="paint1_linear_79_4404" x1="480.78" y1="82.2308" x2="485.14" y2="165.701" gradientUnits="userSpaceOnUse">
<stop stop-color="#F6E059"/>
<stop offset="1" stop-color="#AEF562"/>
</linearGradient>
<linearGradient id="paint2_linear_79_4404" x1="343.39" y1="162.34" x2="347.751" y2="245.821" gradientUnits="userSpaceOnUse">
<stop stop-color="#F6E059"/>
<stop offset="1" stop-color="#AEF562"/>
</linearGradient>
<linearGradient id="paint3_linear_79_4404" x1="137" y1="2.00036" x2="141.36" y2="85.4709" gradientUnits="userSpaceOnUse">
<stop stop-color="#F6E059"/>
<stop offset="1" stop-color="#AEF562"/>
</linearGradient>
<linearGradient id="paint4_linear_79_4404" x1="206" y1="122.29" x2="210.36" y2="205.761" gradientUnits="userSpaceOnUse">
<stop stop-color="#F6E059"/>
<stop offset="1" stop-color="#AEF562"/>
</linearGradient>
<linearGradient id="paint5_linear_79_4404" x1="343.39" y1="122.29" x2="347.75" y2="205.761" gradientUnits="userSpaceOnUse">
<stop stop-color="#F6E059"/>
<stop offset="1" stop-color="#AEF562"/>
</linearGradient>
<linearGradient id="paint6_linear_79_4404" x1="343.39" y1="202.401" x2="347.75" y2="285.871" gradientUnits="userSpaceOnUse">
<stop stop-color="#F6E059"/>
<stop offset="1" stop-color="#AEF562"/>
</linearGradient>
<linearGradient id="paint7_linear_79_4404" x1="480.78" y1="242.46" x2="485.14" y2="325.931" gradientUnits="userSpaceOnUse">
<stop stop-color="#F6E059"/>
<stop offset="1" stop-color="#AEF562"/>
</linearGradient>
<linearGradient id="paint8_linear_79_4404" x1="0.999992" y1="42.0004" x2="5.35971" y2="125.471" gradientUnits="userSpaceOnUse">
<stop stop-color="#F6E059"/>
<stop offset="1" stop-color="#AEF562"/>
</linearGradient>
<linearGradient id="paint9_linear_79_4404" x1="68" y1="2.00036" x2="72.3597" y2="85.4709" gradientUnits="userSpaceOnUse">
<stop stop-color="#F6E059"/>
<stop offset="1" stop-color="#AEF562"/>
</linearGradient>
<linearGradient id="paint10_linear_79_4404" x1="480.78" y1="122.29" x2="485.14" y2="205.761" gradientUnits="userSpaceOnUse">
<stop stop-color="#F6E059"/>
<stop offset="1" stop-color="#AEF562"/>
</linearGradient>
<linearGradient id="paint11_linear_79_4404" x1="343.39" y1="42.17" x2="347.751" y2="125.651" gradientUnits="userSpaceOnUse">
<stop stop-color="#F6E059"/>
<stop offset="1" stop-color="#AEF562"/>
</linearGradient>
<linearGradient id="paint12_linear_79_4404" x1="412.09" y1="82.2308" x2="416.45" y2="165.701" gradientUnits="userSpaceOnUse">
<stop stop-color="#F6E059"/>
<stop offset="1" stop-color="#AEF562"/>
</linearGradient>
<linearGradient id="paint13_linear_79_4404" x1="480.78" y1="42.17" x2="485.141" y2="125.651" gradientUnits="userSpaceOnUse">
<stop stop-color="#F6E059"/>
<stop offset="1" stop-color="#AEF562"/>
</linearGradient>
<linearGradient id="paint14_linear_79_4404" x1="412" y1="2.00037" x2="416.36" y2="85.4708" gradientUnits="userSpaceOnUse">
<stop stop-color="#F6E059"/>
<stop offset="1" stop-color="#AEF562"/>
</linearGradient>
<linearGradient id="paint15_linear_79_4404" x1="412.09" y1="202.401" x2="416.45" y2="285.871" gradientUnits="userSpaceOnUse">
<stop stop-color="#F6E059"/>
<stop offset="1" stop-color="#AEF562"/>
</linearGradient>
<linearGradient id="paint16_linear_79_4404" x1="480.78" y1="162.341" x2="485.141" y2="245.822" gradientUnits="userSpaceOnUse">
<stop stop-color="#F6E059"/>
<stop offset="1" stop-color="#AEF562"/>
</linearGradient>
<linearGradient id="paint17_linear_79_4404" x1="412.09" y1="162.341" x2="416.451" y2="245.822" gradientUnits="userSpaceOnUse">
<stop stop-color="#F6E059"/>
<stop offset="1" stop-color="#AEF562"/>
</linearGradient>
<linearGradient id="paint18_linear_79_4404" x1="480.78" y1="202.401" x2="485.14" y2="285.871" gradientUnits="userSpaceOnUse">
<stop stop-color="#F6E059"/>
<stop offset="1" stop-color="#AEF562"/>
</linearGradient>
<linearGradient id="paint19_linear_79_4404" x1="137" y1="122" x2="141.361" y2="205.481" gradientUnits="userSpaceOnUse">
<stop stop-color="#F6E059"/>
<stop offset="1" stop-color="#AEF562"/>
</linearGradient>
<linearGradient id="paint20_linear_79_4404" x1="137" y1="82.0004" x2="141.36" y2="165.471" gradientUnits="userSpaceOnUse">
<stop stop-color="#F6E059"/>
<stop offset="1" stop-color="#AEF562"/>
</linearGradient>
<linearGradient id="paint21_linear_79_4404" x1="274" y1="2.00013" x2="278.361" y2="85.481" gradientUnits="userSpaceOnUse">
<stop stop-color="#F6E059"/>
<stop offset="1" stop-color="#AEF562"/>
</linearGradient>
<linearGradient id="paint22_linear_79_4404" x1="549.47" y1="202.401" x2="553.83" y2="285.871" gradientUnits="userSpaceOnUse">
<stop stop-color="#F6E059"/>
<stop offset="1" stop-color="#AEF562"/>
</linearGradient>
<linearGradient id="paint23_linear_79_4404" x1="549.47" y1="162.341" x2="553.831" y2="245.822" gradientUnits="userSpaceOnUse">
<stop stop-color="#F6E059"/>
<stop offset="1" stop-color="#AEF562"/>
</linearGradient>
<linearGradient id="paint24_linear_79_4404" x1="549.47" y1="82.2308" x2="553.83" y2="165.701" gradientUnits="userSpaceOnUse">
<stop stop-color="#F6E059"/>
<stop offset="1" stop-color="#AEF562"/>
</linearGradient>
<linearGradient id="paint25_linear_79_4404" x1="549.47" y1="2.12049" x2="553.83" y2="85.591" gradientUnits="userSpaceOnUse">
<stop stop-color="#F6E059"/>
<stop offset="1" stop-color="#AEF562"/>
</linearGradient>
</defs>
</svg>
