<svg width="129" height="34" viewBox="0 0 129 34" fill="none" xmlns="http://www.w3.org/2000/svg">
<path d="M1 20.3275C1 20.8798 1.44772 21.3275 2 21.3275H5.21438V22.1279H2C1.44772 22.1279 1 22.5756 1 23.1279V26.3575C1 26.9098 1.44772 27.3575 2 27.3575H5.21438V31.9992C5.21438 32.5515 5.66209 32.9992 6.21438 32.9992H10.1234C10.6756 32.9992 11.1234 32.5515 11.1234 31.9992V27.3575H16.9234C17.4757 27.3575 17.9234 26.9098 17.9234 26.3575V23.1279C17.9234 22.5756 17.4757 22.1279 16.9234 22.1279H11.1234V21.3275H17.1677C19.5071 21.3275 21.5463 20.9581 23.247 20.1723L23.247 20.1724L23.2536 20.1693C24.9536 19.3687 26.2741 18.201 27.172 16.6627C28.0795 15.1177 28.5102 13.3001 28.5102 11.2517C28.5102 9.3385 28.0731 7.60625 27.172 6.0859C26.2784 4.54141 24.9662 3.35026 23.2762 2.50871C21.5672 1.64398 19.5169 1.2373 17.1677 1.2373H6.21438C5.66209 1.2373 5.21438 1.68502 5.21438 2.2373V16.1183H2C1.44772 16.1183 1 16.566 1 17.1183V20.3275ZM17.1677 16.1183H11.1234V6.46696H17.1677C18.6028 6.46696 19.6441 6.73395 20.372 7.17875L20.372 7.17877L20.3774 7.18206C21.182 7.66676 21.7207 8.25599 22.0464 8.94172L22.0464 8.94176L22.0518 8.95292C22.4204 9.70443 22.6012 10.4808 22.6012 11.2926C22.6012 12.3478 22.3964 13.2098 22.0251 13.9115L22.025 13.9115L22.0195 13.9223C21.6767 14.5896 21.1408 15.1189 20.3633 15.5091C19.5961 15.8943 18.5488 16.1183 17.1677 16.1183Z" stroke="white" stroke-width="2" stroke-linejoin="round"/>
<path d="M51.1702 20.3275C51.1702 20.8798 51.6179 21.3275 52.1702 21.3275H55.3845V22.1279H52.1702C51.6179 22.1279 51.1702 22.5756 51.1702 23.1279V26.3575C51.1702 26.9098 51.6179 27.3575 52.1702 27.3575H55.3845V31.9992C55.3845 32.5515 55.8323 32.9992 56.3845 32.9992H60.2935C60.8458 32.9992 61.2935 32.5515 61.2935 31.9992V27.3575H67.0935C67.6458 27.3575 68.0935 26.9098 68.0935 26.3575V23.1279C68.0935 22.5756 67.6458 22.1279 67.0935 22.1279H61.2935V21.3275H67.3378C69.6773 21.3275 71.7165 20.9581 73.4171 20.1723L73.4172 20.1724L73.4238 20.1693C75.1238 19.3687 76.4442 18.201 77.3422 16.6627C78.2497 15.1177 78.6804 13.3001 78.6804 11.2517C78.6804 9.3385 78.2433 7.60626 77.3421 6.08591C76.4485 4.54144 75.1364 3.35031 73.4465 2.50876C71.7374 1.644 69.6871 1.2373 67.3378 1.2373H56.3845C55.8323 1.2373 55.3845 1.68502 55.3845 2.2373V16.1183H52.1702C51.6179 16.1183 51.1702 16.566 51.1702 17.1183V20.3275ZM67.3378 16.1183H61.2935V6.46696H67.3378C68.773 6.46696 69.8143 6.73395 70.5421 7.17875L70.5421 7.17877L70.5476 7.18206C71.3522 7.66676 71.8909 8.25599 72.2166 8.94172L72.2165 8.94176L72.222 8.95292C72.5905 9.70443 72.7714 10.4808 72.7714 11.2926C72.7714 12.3478 72.5666 13.2098 72.1953 13.9115L72.1952 13.9115L72.1896 13.9223C71.8469 14.5896 71.3109 15.1189 70.5335 15.5091C69.7662 15.8943 68.719 16.1183 67.3378 16.1183Z" stroke="white" stroke-width="2" stroke-linejoin="round"/>
<path d="M100.49 20.3275C100.49 20.8798 100.937 21.3275 101.49 21.3275H104.704V22.1279H101.49C100.937 22.1279 100.49 22.5756 100.49 23.1279V26.3575C100.49 26.9098 100.937 27.3575 101.49 27.3575H104.704V31.9992C104.704 32.5515 105.152 32.9992 105.704 32.9992H109.613C110.165 32.9992 110.613 32.5515 110.613 31.9992V27.3575H116.413C116.965 27.3575 117.413 26.9098 117.413 26.3575V23.1279C117.413 22.5756 116.965 22.1279 116.413 22.1279H110.613V21.3275H116.657C118.997 21.3275 121.036 20.9581 122.737 20.1723L122.737 20.1724L122.743 20.1693C124.443 19.3687 125.764 18.201 126.662 16.6627C127.569 15.1177 128 13.3001 128 11.2517C128 9.3385 127.563 7.60626 126.662 6.08591C125.768 4.54144 124.456 3.35031 122.766 2.50876C121.057 1.644 119.007 1.2373 116.657 1.2373H105.704C105.152 1.2373 104.704 1.68502 104.704 2.2373V16.1183H101.49C100.937 16.1183 100.49 16.566 100.49 17.1183V20.3275ZM116.657 16.1183H110.613V6.46696H116.657C118.093 6.46696 119.134 6.73395 119.862 7.17875L119.862 7.17877L119.867 7.18206C120.672 7.66676 121.21 8.25599 121.536 8.94172L121.536 8.94176L121.542 8.95292C121.91 9.70443 122.091 10.4808 122.091 11.2926C122.091 12.3478 121.886 13.2098 121.515 13.9115L121.515 13.9115L121.509 13.9223C121.166 14.5896 120.63 15.1189 119.853 15.5091C119.086 15.8943 118.039 16.1183 116.657 16.1183Z" stroke="white" stroke-width="2" stroke-linejoin="round"/>
</svg>
